{
  "name":"Pipelines Installer",
  "key":"pipelines-installer",
  "description":"Install pipelines",
  "baseUrl":"https://bitbucket.org/atlassian/pipelines-installer/raw/",
  "contexts": ["site"],
  "authentication":{
    "type":"jwt"
  },
  "scopes": ["account"],
  "modules":{
    "repoPage": [
      {
        "url": "master/pipelines-installer.html?target={repository.owner.uuid}",
        "name": {
          "value": "Pipelines"
        },
        "location": "org.bitbucket.repository.navigation",
        "key": "repo-installer",
        "params": {
          "auiIcon": "aui-iconfont-build"
        },
        "weight": 550,
        "conditions": [
          {
            "condition": "has_account_permission"
          },
          {
            "condition": "has_addon",
            "invert": true,
            "params": {
               "key": "pipelines"
            }
          },
          {
            "condition": "flag_is_active",
            "params": {
              "flag": "pipelines-installer"
            }
          }
        ]
      }
    ],
    "associatedAddon": {
      "descriptor": "https://bitbucketci-cdn.uswest.atlassian.io/rest/atlassian-connect",
      "key": "pipelines"
    }
  }
}

